Lab4/FPMult/sim/transcript
# //  Questa Sim-64
# //  Version 10.7c linux_x86_64 Aug 17 2018
# //
# //  Copyright 1991-2018 Mentor Graphics Corporation
# //  All Rights Reserved.
# //
# //  QuestaSim and its associated documentation contain trade
# //  secrets and commercial or financial information that are the property of
# //  Mentor Graphics Corporation and are privileged, confidential,
# //  and exempt from disclosure under the Freedom of Information Act,
# //  5 U.S.C. Section 552. Furthermore, this information
# //  is prohibited from disclosure under the Trade Secrets Act,
# //  18 U.S.C. Section 1905.
# //
# vsim top 
# Start time: 18:39:05 on Apr 06,2022
# ** Note: (vsim-3812) Design is being optimized...
# ** Warning: ../tb/monitor.sv(49): (vopt-2240) Treating stand-alone use of function 'begin_tr' as an implicit VOID cast.
# ** Warning: ../tb/monitor_out.sv(48): (vopt-2240) Treating stand-alone use of function 'begin_tr' as an implicit VOID cast.
# Loading sv_std.std
# Loading mtiUvm.uvm_pkg
# Loading work.top_sv_unit(fast)
# Loading work.top(fast)
# Loading work.DUT(fast)
# Loading mtiUvm.questa_uvm_pkg(fast)
# Loading work.dut_if(fast)
# Loading std.standard
# Loading std.textio(body)
# Loading ieee.std_logic_1164(body)
# Loading ieee.std_logic_arith(body)
# Loading work.fpmul(pipeline)#1
# Loading work.fpmul_stage1(struct)#1
# Loading work.unpackfp(unpackfp)#1
# Loading work.fpmul_stage2(struct)#1
# Loading ieee.numeric_std(body)
# Loading work.mbe_mult(structure)#1
# Loading work.stage_mux(structure)#1
# Loading work.stage_1(structure)#1
# Loading work.stage_2(behavior)#1
# Loading work.stage_3(structure)#1
# Loading work.stage_4(structure)#1
# Loading work.stage_5(structure)#1
# Loading ieee.std_logic_unsigned(body)
# Loading work.fpmul_stage3(struct)#1
# Loading work.fpnormalize(fpnormalize)#1
# Loading work.fpround(fpround)#1
# Loading work.fpmul_stage4(struct)#1
# Loading work.packfp(packfp)#1
# ** Warning: (vsim-3839) Variable '/top/out/data', driven via a port connection, is multiply driven. See ../src/DUT.sv(3).
#    Time: 0 ns  Iteration: 0  Instance: /top/sum File: ../src/DUT.sv Line: 12
# ** Warning: (vsim-3764) Stand-alone call to function 'begin_tr' treated as implicit void cast.
#    Time: 0 ns  Iteration: 0  Region: /top_sv_unit::driver File: ../tb/driver.sv Line: 67
# Loading /software/mentor/questa10.7c/questasim/uvm-1.1d/linux_x86_64/uvm_dpi.so
run 4 us
# ----------------------------------------------------------------
# UVM-1.1d
# (C) 2007-2013 Mentor Graphics Corporation
# (C) 2007-2013 Cadence Design Systems, Inc.
# (C) 2006-2013 Synopsys, Inc.
# (C) 2011-2013 Cypress Semiconductor Corp.
# ----------------------------------------------------------------
# 
#   ***********       IMPORTANT RELEASE NOTES         ************
# 
#   You are using a version of the UVM library that has been compiled
#   with `UVM_NO_DEPRECATED undefined.
#   See http://www.eda.org/svdb/view.php?id=3313 for more details.
# 
#   You are using a version of the UVM library that has been compiled
#   with `UVM_OBJECT_MUST_HAVE_CONSTRUCTOR undefined.
#   See http://www.eda.org/svdb/view.php?id=3770 for more details.
# 
#       (Specify +UVM_NO_RELNOTES to turn off this notice)
# 
# UVM_INFO verilog_src/questa_uvm_pkg-1.2/src/questa_uvm_pkg.sv(215) @ 0: reporter [Questa UVM] QUESTA_UVM-1.2.3
# UVM_INFO verilog_src/questa_uvm_pkg-1.2/src/questa_uvm_pkg.sv(216) @ 0: reporter [Questa UVM]  questa_uvm::init(+struct)
# ** Warning: There is an 'U'|'X'|'W'|'Z'|'-' in an arithmetic operand, the result will be 'X'(es).
#    Time: 0 ns  Iteration: 0  Instance: /top/sum/mult_under_test/I3/I11
# ** Warning: There is an 'U'|'X'|'W'|'Z'|'-' in an arithmetic operand, the result will be 'X'(es).
#    Time: 0 ns  Iteration: 0  Instance: /top/sum/mult_under_test/I3/I11
# ** Warning: There is an 'U'|'X'|'W'|'Z'|'-' in an arithmetic operand, the result will be 'X'(es).
#    Time: 0 ns  Iteration: 0  Instance: /top/sum/mult_under_test/I2
# ** Warning: There is an 'U'|'X'|'W'|'Z'|'-' in an arithmetic operand, the result will be 'X'(es).
#    Time: 0 ns  Iteration: 0  Instance: /top/sum/mult_under_test/I2
# ** Warning: There is an 'U'|'X'|'W'|'Z'|'-' in an arithmetic operand, the result will be 'X'(es).
#    Time: 0 ns  Iteration: 0  Instance: /top/sum/mult_under_test/I2
# ** Warning: There is an 'U'|'X'|'W'|'Z'|'-' in an arithmetic operand, the result will be 'X'(es).
#    Time: 0 ns  Iteration: 0  Instance: /top/sum/mult_under_test/I2
# ** Warning: There is an 'U'|'X'|'W'|'Z'|'-' in an arithmetic operand, the result will be 'X'(es).
#    Time: 0 ns  Iteration: 0  Instance: /top/sum/mult_under_test/I2
# UVM_INFO @ 0: reporter [RNTST] Running test simple_test...
# ** Warning: There is an 'U'|'X'|'W'|'Z'|'-' in an arithmetic operand, the result will be 'X'(es).
#    Time: 0 ns  Iteration: 1  Instance: /top/sum/mult_under_test/I2
# ** Warning: There is an 'U'|'X'|'W'|'Z'|'-' in an arithmetic operand, the result will be 'X'(es).
#    Time: 0 ns  Iteration: 1  Instance: /top/sum/mult_under_test/I2
# ** Warning: There is an 'U'|'X'|'W'|'Z'|'-' in an arithmetic operand, the result will be 'X'(es).
#    Time: 0 ns  Iteration: 1  Instance: /top/sum/mult_under_test/I2
# ** Warning: There is an 'U'|'X'|'W'|'Z'|'-' in an arithmetic operand, the result will be 'X'(es).
#    Time: 0 ns  Iteration: 1  Instance: /top/sum/mult_under_test/I2
# ** Warning: There is an 'U'|'X'|'W'|'Z'|'-' in an arithmetic operand, the result will be 'X'(es).
#    Time: 15 ns  Iteration: 2  Instance: /top/sum/mult_under_test/I2
# ** Warning: There is an 'U'|'X'|'W'|'Z'|'-' in an arithmetic operand, the result will be 'X'(es).
#    Time: 15 ns  Iteration: 2  Instance: /top/sum/mult_under_test/I2
# ** Warning: There is an 'U'|'X'|'W'|'Z'|'-' in an arithmetic operand, the result will be 'X'(es).
#    Time: 15 ns  Iteration: 2  Instance: /top/sum/mult_under_test/I2
# ** Warning: There is an 'U'|'X'|'W'|'Z'|'-' in an arithmetic operand, the result will be 'X'(es).
#    Time: 15 ns  Iteration: 2  Instance: /top/sum/mult_under_test/I2
# ** Warning: There is an 'U'|'X'|'W'|'Z'|'-' in an arithmetic operand, the result will be 'X'(es).
#    Time: 15 ns  Iteration: 3  Instance: /top/sum/mult_under_test/I3/I11
# ** Warning: There is an 'U'|'X'|'W'|'Z'|'-' in an arithmetic operand, the result will be 'X'(es).
#    Time: 15 ns  Iteration: 3  Instance: /top/sum/mult_under_test/I3/I11
# FP Mult: input A = 0.000000, input B = 0.000000, output OUT = 0.000000
# FP Mult: input A = 00000000000000000000000000000000, input B = 00000000000000000000000000000000, output OUT = xxxxxxxxxxxxxxxxxxxxxxxxxxxxxxxx
# refmod: input A = 0.000000, input B = 0.000000, output OUT = 0.000000
# refmod: input A = 00000000000000000000000000000000, input B = 00000000000000000000000000000000, output OUT = 00000000000000000000000000000000
# UVM_INFO @ 45: uvm_test_top.env_h.comp [Comparator Match] 
# FP Mult: input A = 0.000000, input B = 0.000000, output OUT = 0.000000
# FP Mult: input A = 00000000000000000000000000000000, input B = 00000000000000000000000000000000, output OUT = xxxxxxxxxxxxxxxxxxxxxxxxxxxxxxxx
# refmod: input A = 0.000000, input B = 0.000000, output OUT = 0.000000
# refmod: input A = 00000000000000000000000000000000, input B = 00000000000000000000000000000000, output OUT = 00000000000000000000000000000000
# UVM_INFO @ 75: uvm_test_top.env_h.comp [Comparator Match] 
# FP Mult: input A = 0.000000, input B = -53.353210, output OUT = -0.000001
# FP Mult: input A = 00110010001010010000010111001000, input B = 11000010010101010110100110110000, output OUT = 10110101000011001110011110010111
# refmod: input A = 0.000000, input B = -53.353210, output OUT = -0.000001
# refmod: input A = 00110010001010010000010111001000, input B = 11000010010101010110100110110000, output OUT = 10110101000011001110011110010111
# UVM_INFO @ 105: uvm_test_top.env_h.comp [Comparator Match] 
# FP Mult: input A = -18203525120.000000, input B = 1849897385984.000000, output OUT = -33674652903746725478400.000000
# FP Mult: input A = 11010000100001111010000001111000, input B = 01010011110101110101101100111101, output OUT = 11100100111001000011000000110110
# refmod: input A = -18203525120.000000, input B = 1849897385984.000000, output OUT = -33674653535182079918080.000000
# refmod: input A = 11010000100001111010000001111000, input B = 01010011110101110101101100111101, output OUT = 11100100111001000011000000110110
# UVM_INFO @ 135: uvm_test_top.env_h.comp [Comparator Match] 
# FP Mult: input A = 0.003875, input B = 1418947380874575872.000000, output OUT = 5498647449960448.000000
# FP Mult: input A = 00111011011111011111011001100011, input B = 01011101100111011000100011101001, output OUT = 01011001100111000100011111101101
# refmod: input A = 0.003875, input B = 1418947380874575872.000000, output OUT = 5498647317513056.000000
# refmod: input A = 00111011011111011111011001100011, input B = 01011101100111011000100011101001, output OUT = 01011001100111000100011111101101
# UVM_INFO @ 165: uvm_test_top.env_h.comp [Comparator Match] 
# FP Mult: input A = -0.000036, input B = 389349153701888.000000, output OUT = -13894306816.000000
# FP Mult: input A = 10111000000101011010110110001000, input B = 01010111101100010000111000110101, output OUT = 11010000010011110000101010010011
# refmod: input A = -0.000036, input B = 389349153701888.000000, output OUT = -13894306834.911133
# refmod: input A = 10111000000101011010110110001000, input B = 01010111101100010000111000110101, output OUT = 11010000010011110000101010010011
# UVM_INFO @ 195: uvm_test_top.env_h.comp [Comparator Match] 
# FP Mult: input A = 17673116113174528.000000, input B = 0.000000, output OUT = 359.000183
# FP Mult: input A = 01011010011110110010011001101100, input B = 00101000101101101111011101100101, output OUT = 01000011101100111000000000000110
# refmod: input A = 17673116113174528.000000, input B = 0.000000, output OUT = 359.000181
# refmod: input A = 01011010011110110010011001101100, input B = 00101000101101101111011101100101, output OUT = 01000011101100111000000000000110
# UVM_INFO @ 225: uvm_test_top.env_h.comp [Comparator Match] 
# FP Mult: input A = -0.000000, input B = -26133.312500, output OUT = 0.000009
# FP Mult: input A = 10101111101111011110000000001011, input B = 11000110110011000010101010100000, output OUT = 00110111000101110110111000100110
# refmod: input A = -0.000000, input B = -26133.312500, output OUT = 0.000009
# refmod: input A = 10101111101111011110000000001011, input B = 11000110110011000010101010100000, output OUT = 00110111000101110110111000100110
# UVM_INFO @ 255: uvm_test_top.env_h.comp [Comparator Match] 
# FP Mult: input A = 0.000000, input B = 72274688.000000, output OUT = 0.027957
# FP Mult: input A = 00101111110101001010011010010101, input B = 01001100100010011101101001100000, output OUT = 00111100111001010000010100010111
# refmod: input A = 0.000000, input B = 72274688.000000, output OUT = 0.027957
# refmod: input A = 00101111110101001010011010010101, input B = 01001100100010011101101001100000, output OUT = 00111100111001010000010100010111
# UVM_INFO @ 285: uvm_test_top.env_h.comp [Comparator Match] 
# FP Mult: input A = -3910016256.000000, input B = 46419804671705088.000000, output OUT = -181502181967478926866382848.000000
# FP Mult: input A = 11001111011010010000111000011101, input B = 01011011001001001110101010010001, output OUT = 11101011000101100010001010010101
# refmod: input A = -3910016256.000000, input B = 46419804671705088.000000, output OUT = -181502190866711637317910528.000000
# refmod: input A = 11001111011010010000111000011101, input B = 01011011001001001110101010010001, output OUT = 11101011000101100010001010010101
# UVM_INFO @ 315: uvm_test_top.env_h.comp [Comparator Match] 
# FP Mult: input A = 0.000000, input B = -30603919360.000000, output OUT = -0.737815
# FP Mult: input A = 00101101110101000000111110010010, input B = 11010000111001000000010001011000, output OUT = 10111111001111001110000101110111
# refmod: input A = 0.000000, input B = -30603919360.000000, output OUT = -0.737815
# refmod: input A = 00101101110101000000111110010010, input B = 11010000111001000000010001011000, output OUT = 10111111001111001110000101110111
# UVM_INFO @ 345: uvm_test_top.env_h.comp [Comparator Match] 
# FP Mult: input A = 42709064.000000, input B = 0.025823, output OUT = 1102872.000000
# FP Mult: input A = 01001100001000101110110000010010, input B = 00111100110100111000101010001101, output OUT = 01001001100001101010000011000000
# refmod: input A = 42709064.000000, input B = 0.025823, output OUT = 1102871.978382
# refmod: input A = 01001100001000101110110000010010, input B = 00111100110100111000101010001101, output OUT = 01001001100001101010000011000000
# UVM_INFO @ 375: uvm_test_top.env_h.comp [Comparator Match] 
# FP Mult: input A = 0.000073, input B = -0.000000, output OUT = -0.000000
# FP Mult: input A = 00111000100110000110100100001001, input B = 10101100010010111001011011111001, output OUT = 10100101011100100110101001011000
# refmod: input A = 0.000073, input B = -0.000000, output OUT = -0.000000
# refmod: input A = 00111000100110000110100100001001, input B = 10101100010010111001011011111001, output OUT = 10100101011100100110101001011000
# UVM_INFO @ 405: uvm_test_top.env_h.comp [Comparator Match] 
# FP Mult: input A = -0.932067, input B = -2878832896.000000, output OUT = 2683265792.000000
# FP Mult: input A = 10111111011011101001101111110101, input B = 11001111001010111001011110000001, output OUT = 01001111000111111110111101100011
# refmod: input A = -0.932067, input B = -2878832896.000000, output OUT = 2683265761.099442
# refmod: input A = 10111111011011101001101111110101, input B = 11001111001010111001011110000001, output OUT = 01001111000111111110111101100011
# UVM_INFO @ 435: uvm_test_top.env_h.comp [Comparator Match] 
# FP Mult: input A = 3461478350848.000000, input B = -25098465280.000000, output OUT = -86877796497298886230016.000000
# FP Mult: input A = 01010100010010010111110000001100, input B = 11010000101110101111111110000110, output OUT = 11100101100100110010110100111101
# refmod: input A = 3461478350848.000000, input B = -25098465280.000000, output OUT = -86877794206230186557440.000000
# refmod: input A = 01010100010010010111110000001100, input B = 11010000101110101111111110000110, output OUT = 11100101100100110010110100111101
# UVM_INFO @ 465: uvm_test_top.env_h.comp [Comparator Match] 
# FP Mult: input A = -3.719903, input B = 0.000000, output OUT = -0.000000
# FP Mult: input A = 11000000011011100001001011100100, input B = 00100111111011110011011110011010, output OUT = 10101000110111100111011101011000
# refmod: input A = -3.719903, input B = 0.000000, output OUT = -0.000000
# refmod: input A = 11000000011011100001001011100100, input B = 00100111111011110011011110011010, output OUT = 10101000110111100111011101011000
# UVM_INFO @ 495: uvm_test_top.env_h.comp [Comparator Match] 
# FP Mult: input A = 26611.787109, input B = 6845.682129, output OUT = 182175840.000000
# FP Mult: input A = 01000110110011111110011110010011, input B = 01000101110101011110110101110101, output OUT = 01001101001011011011110010000110
# refmod: input A = 26611.787109, input B = 6845.682129, output OUT = 182175835.432906
# refmod: input A = 01000110110011111110011110010011, input B = 01000101110101011110110101110101, output OUT = 01001101001011011011110010000110
# UVM_INFO @ 525: uvm_test_top.env_h.comp [Comparator Match] 
# FP Mult: input A = 2452.330078, input B = -0.000000, output OUT = -0.000000
# FP Mult: input A = 01000101000110010100010101001000, input B = 10101000001010000011001011000011, output OUT = 10101101110010010110011110110111
# refmod: input A = 2452.330078, input B = -0.000000, output OUT = -0.000000
# refmod: input A = 01000101000110010100010101001000, input B = 10101000001010000011001011000011, output OUT = 10101101110010010110011110110111
# UVM_INFO @ 555: uvm_test_top.env_h.comp [Comparator Match] 
# FP Mult: input A = -0.000001, input B = 0.000000, output OUT = -0.000000
# FP Mult: input A = 10110101001000010000011000010100, input B = 00110010100101001011101011111010, output OUT = 10101000001110110001101000111110
# refmod: input A = -0.000001, input B = 0.000000, output OUT = -0.000000
# refmod: input A = 10110101001000010000011000010100, input B = 00110010100101001011101011111010, output OUT = 10101000001110110001101000111110
# UVM_INFO @ 585: uvm_test_top.env_h.comp [Comparator Match] 
# FP Mult: input A = 0.000000, input B = -245261650716786688.000000, output OUT = -704.933105
# FP Mult: input A = 00100111010011110001101111001001, input B = 11011100010110011101011000001011, output OUT = 11000100001100000011101110111000
# refmod: input A = 0.000000, input B = -245261650716786688.000000, output OUT = -704.933075
# refmod: input A = 00100111010011110001101111001001, input B = 11011100010110011101011000001011, output OUT = 11000100001100000011101110111000
# UVM_INFO @ 615: uvm_test_top.env_h.comp [Comparator Match] 
# FP Mult: input A = -6751626312286208.000000, input B = 0.002897, output OUT = -19557867585536.000000
# FP Mult: input A = 11011001101111111110010010001100, input B = 00111011001111011101011110100010, output OUT = 11010101100011100100110101011110
# refmod: input A = -6751626312286208.000000, input B = 0.002897, output OUT = -19557867030163.000000
# refmod: input A = 11011001101111111110010010001100, input B = 00111011001111011101011110100010, output OUT = 11010101100011100100110101011110
# UVM_INFO @ 645: uvm_test_top.env_h.comp [Comparator Match] 
# FP Mult: input A = -0.000000, input B = 1598055213699170304.000000, output OUT = -10716.926758
# FP Mult: input A = 10100111111100011001111000001111, input B = 01011101101100010110101101110110, output OUT = 11000110001001110111001110110101
# refmod: input A = -0.000000, input B = 1598055213699170304.000000, output OUT = -10716.926568
# refmod: input A = 10100111111100011001111000001111, input B = 01011101101100010110101101110110, output OUT = 11000110001001110111001110110101
# UVM_INFO @ 675: uvm_test_top.env_h.comp [Comparator Match] 
# FP Mult: input A = -439421471308120064.000000, input B = -49333272576.000000, output OUT = 21678098897476832267794907136.000000
# FP Mult: input A = 11011100110000110010010001110000, input B = 11010001001101111100011111100000, output OUT = 01101110100011000001011101101000
# refmod: input A = -439421471308120064.000000, input B = -49333272576.000000, output OUT = 21678099219790450399446564864.000000
# refmod: input A = 11011100110000110010010001110000, input B = 11010001001101111100011111100000, output OUT = 01101110100011000001011101101000
# UVM_INFO @ 705: uvm_test_top.env_h.comp [Comparator Match] 
# FP Mult: input A = -0.000000, input B = -109.111427, output OUT = 0.000000
# FP Mult: input A = 10101001100111100100101111100100, input B = 11000010110110100011100100001101, output OUT = 00101101000001101110111111100111
# refmod: input A = -0.000000, input B = -109.111427, output OUT = 0.000000
# refmod: input A = 10101001100111100100101111100100, input B = 11000010110110100011100100001101, output OUT = 00101101000001101110111111100111
# UVM_INFO @ 735: uvm_test_top.env_h.comp [Comparator Match] 
# FP Mult: input A = 0.047095, input B = -3814707200.000000, output OUT = -179651872.000000
# FP Mult: input A = 00111101010000001110011000110100, input B = 11001111011000110101111111010000, output OUT = 11001101001010110101010001010010
# refmod: input A = 0.047095, input B = -3814707200.000000, output OUT = -179651876.271057
# refmod: input A = 00111101010000001110011000110100, input B = 11001111011000110101111111010000, output OUT = 11001101001010110101010001010010
# UVM_INFO @ 765: uvm_test_top.env_h.comp [Comparator Match] 
# FP Mult: input A = -0.000223, input B = 0.008071, output OUT = -0.000002
# FP Mult: input A = 10111001011010011101011101010000, input B = 00111100000001000011101101001000, output OUT = 10110101111100011001001001010111
# refmod: input A = -0.000223, input B = 0.008071, output OUT = -0.000002
# refmod: input A = 10111001011010011101011101010000, input B = 00111100000001000011101101001000, output OUT = 10110101111100011001001001010111
# UVM_INFO @ 795: uvm_test_top.env_h.comp [Comparator Match] 
# FP Mult: input A = -62033122820096.000000, input B = 2342055.750000, output OUT = -145285033263437447168.000000
# FP Mult: input A = 11010110011000011010110011011001, input B = 01001010000011101111001010011111, output OUT = 11100000111111000000011110000100
# refmod: input A = -62033122820096.000000, input B = 2342055.750000, output OUT = -145285031991262052352.000000
# refmod: input A = 11010110011000011010110011011001, input B = 01001010000011101111001010011111, output OUT = 11100000111111000000011110000100
# UVM_INFO @ 825: uvm_test_top.env_h.comp [Comparator Match] 
# FP Mult: input A = 230144868352.000000, input B = 0.005463, output OUT = 1257391616.000000
# FP Mult: input A = 01010010010101100101011011010000, input B = 00111011101100110000011011111011, output OUT = 01001110100101011110010010001100
# refmod: input A = 230144868352.000000, input B = 0.005463, output OUT = 1257391567.995972
# refmod: input A = 01010010010101100101011011010000, input B = 00111011101100110000011011111011, output OUT = 01001110100101011110010010001100
# UVM_INFO @ 855: uvm_test_top.env_h.comp [Comparator Match] 
# FP Mult: input A = 0.000000, input B = 0.000000, output OUT = 0.000000
# FP Mult: input A = 00101110001011011101000000010111, input B = 00101001110010101111111000010000, output OUT = 00011000100010011101001010110001
# refmod: input A = 0.000000, input B = 0.000000, output OUT = 0.000000
# refmod: input A = 00101110001011011101000000010111, input B = 00101001110010101111111000010000, output OUT = 00011000100010011101001010110001
# UVM_INFO @ 885: uvm_test_top.env_h.comp [Comparator Match] 
# FP Mult: input A = -0.000000, input B = -0.331511, output OUT = 0.000000
# FP Mult: input A = 10110001100111101110011110111000, input B = 10111110101010011011101111011100, output OUT = 00110000110100101011011100101001
# refmod: input A = -0.000000, input B = -0.331511, output OUT = 0.000000
# refmod: input A = 10110001100111101110011110111000, input B = 10111110101010011011101111011100, output OUT = 00110000110100101011011100101001
# UVM_INFO @ 915: uvm_test_top.env_h.comp [Comparator Match] 
# FP Mult: input A = 7701907153879040.000000, input B = 438502326272.000000, output OUT = 3377304282286849906769395712.000000
# FP Mult: input A = 01011001110110101110011011000000, input B = 01010010110011000011000110001101, output OUT = 01101101001011101001101001000000
# refmod: input A = 7701907153879040.000000, input B = 438502326272.000000, output OUT = 3377304203706917708502138880.000000
# refmod: input A = 01011001110110101110011011000000, input B = 01010010110011000011000110001101, output OUT = 01101101001011101001101001000000
# UVM_INFO @ 945: uvm_test_top.env_h.comp [Comparator Match] 
# FP Mult: input A = -0.000050, input B = 14309733.000000, output OUT = -713.318176
# FP Mult: input A = 10111000010100010001010001100001, input B = 01001011010110100101100101100101, output OUT = 11000100001100100101010001011101
# refmod: input A = -0.000050, input B = 14309733.000000, output OUT = -713.318187
# refmod: input A = 10111000010100010001010001100001, input B = 01001011010110100101100101100101, output OUT = 11000100001100100101010001011101
# UVM_INFO @ 975: uvm_test_top.env_h.comp [Comparator Match] 
# FP Mult: input A = -0.000000, input B = 23.858421, output OUT = -0.000000
# FP Mult: input A = 10101010010011111100001011011001, input B = 01000001101111101101111000001100, output OUT = 10101100100110101110011011010010
# refmod: input A = -0.000000, input B = 23.858421, output OUT = -0.000000
# refmod: input A = 10101010010011111100001011011001, input B = 01000001101111101101111000001100, output OUT = 10101100100110101110011011010010
# UVM_INFO @ 1005: uvm_test_top.env_h.comp [Comparator Match] 
# FP Mult: input A = 2028225394171183104.000000, input B = 173985.343750, output OUT = 352881494357654238134272.000000
# FP Mult: input A = 01011101111000010010110110100010, input B = 01001000001010011110100001010110, output OUT = 01100110100101010111001101111101
# refmod: input A = 2028225394171183104.000000, input B = 173985.343750, output OUT = 352881492407352538693632.000000
# refmod: input A = 01011101111000010010110110100010, input B = 01001000001010011110100001010110, output OUT = 01100110100101010111001101111101
# UVM_INFO @ 1035: uvm_test_top.env_h.comp [Comparator Match] 
# FP Mult: input A = 0.000617, input B = -161946422738944.000000, output OUT = -99925852160.000000
# FP Mult: input A = 00111010001000011100000000110100, input B = 11010111000100110100101000010111, output OUT = 11010001101110100010000001011100
# refmod: input A = 0.000617, input B = -161946422738944.000000, output OUT = -99925851347.167969
# refmod: input A = 00111010001000011100000000110100, input B = 11010111000100110100101000010111, output OUT = 11010001101110100010000001011100
# UVM_INFO @ 1065: uvm_test_top.env_h.comp [Comparator Match] 
# FP Mult: input A = -0.001474, input B = -1.969571, output OUT = 0.002904
# FP Mult: input A = 10111010110000010100001110100001, input B = 10111111111111000001101011100111, output OUT = 00111011001111100101001011100010
# refmod: input A = -0.001474, input B = -1.969571, output OUT = 0.002904
# refmod: input A = 10111010110000010100001110100001, input B = 10111111111111000001101011100111, output OUT = 00111011001111100101001011100010
# UVM_INFO @ 1095: uvm_test_top.env_h.comp [Comparator Match] 
# FP Mult: input A = 8503633117184.000000, input B = 65375.675781, output OUT = 555930774268805120.000000
# FP Mult: input A = 01010100111101110111110100000001, input B = 01000111011111110101111110101101, output OUT = 01011100111101101110001000000011
# refmod: input A = 8503633117184.000000, input B = 65375.675781, output OUT = 555930761631721472.000000
# refmod: input A = 01010100111101110111110100000001, input B = 01000111011111110101111110101101, output OUT = 01011100111101101110001000000011
# UVM_INFO @ 1125: uvm_test_top.env_h.comp [Comparator Match] 
# FP Mult: input A = 0.277764, input B = 301579.125000, output OUT = 83767.953125
# FP Mult: input A = 00111110100011100011011100100100, input B = 01001000100100110100000101100100, output OUT = 01000111101000111001101111111010
# refmod: input A = 0.277764, input B = 301579.125000, output OUT = 83767.956646
# refmod: input A = 00111110100011100011011100100100, input B = 01001000100100110100000101100100, output OUT = 01000111101000111001101111111010
# UVM_INFO @ 1155: uvm_test_top.env_h.comp [Comparator Match] 
# FP Mult: input A = -10591361314389491712.000000, input B = 0.014965, output OUT = -158504015712223232.000000
# FP Mult: input A = 11011111000100101111110000010011, input B = 00111100011101010011000101110101, output OUT = 11011100000011001100011110100100
# refmod: input A = -10591361314389491712.000000, input B = 0.014965, output OUT = -158504008990768128.000000
# refmod: input A = 11011111000100101111110000010011, input B = 00111100011101010011000101110101, output OUT = 11011100000011001100011110100100
# UVM_INFO @ 1185: uvm_test_top.env_h.comp [Comparator Match] 
# FP Mult: input A = -19193184.000000, input B = 3664.156494, output OUT = -70326829056.000000
# FP Mult: input A = 11001011100100100110111010110000, input B = 01000101011001010000001010000001, output OUT = 11010001100000101111111001110010
# refmod: input A = -19193184.000000, input B = 3664.156494, output OUT = -70326829796.835938
# refmod: input A = 11001011100100100110111010110000, input B = 01000101011001010000001010000001, output OUT = 11010001100000101111111001110010
# UVM_INFO @ 1215: uvm_test_top.env_h.comp [Comparator Match] 
# FP Mult: input A = -0.000000, input B = -470237024.000000, output OUT = 0.000009
# FP Mult: input A = 10101000101010100111101011101000, input B = 11001101111000000011100111111011, output OUT = 00110111000101010101001000101000
# refmod: input A = -0.000000, input B = -470237024.000000, output OUT = 0.000009
# refmod: input A = 10101000101010100111101011101000, input B = 11001101111000000011100111111011, output OUT = 00110111000101010101001000101000
# UVM_INFO @ 1245: uvm_test_top.env_h.comp [Comparator Match] 
# FP Mult: input A = 4745980201140224.000000, input B = -0.000336, output OUT = -1596172926976.000000
# FP Mult: input A = 01011001100001101110001110001101, input B = 10111001101100000101010000111110, output OUT = 11010011101110011101000110101001
# refmod: input A = 4745980201140224.000000, input B = -0.000336, output OUT = -1596172866944.593750
# refmod: input A = 01011001100001101110001110001101, input B = 10111001101100000101010000111110, output OUT = 11010011101110011101000110101001
# UVM_INFO @ 1275: uvm_test_top.env_h.comp [Comparator Match] 
# FP Mult: input A = 0.000000, input B = -0.000001, output OUT = -0.000000
# FP Mult: input A = 00101001111001101100110001110101, input B = 10110101101110000111001110011110, output OUT = 10100000001001100100101100110000
# refmod: input A = 0.000000, input B = -0.000001, output OUT = -0.000000
# refmod: input A = 00101001111001101100110001110101, input B = 10110101101110000111001110011110, output OUT = 10100000001001100100101100110000
# UVM_INFO @ 1305: uvm_test_top.env_h.comp [Comparator Match] 
# FP Mult: input A = 732252.125000, input B = 0.000091, output OUT = 66.844040
# FP Mult: input A = 01001001001100101100010111000010, input B = 00111000101111110111000010001111, output OUT = 01000010100001011011000000100110
# refmod: input A = 732252.125000, input B = 0.000091, output OUT = 66.844041
# refmod: input A = 01001001001100101100010111000010, input B = 00111000101111110111000010001111, output OUT = 01000010100001011011000000100110
# UVM_INFO @ 1335: uvm_test_top.env_h.comp [Comparator Match] 
# FP Mult: input A = -10519.142578, input B = 1854238399314001920.000000, output OUT = -19504997662349257080832.000000
# FP Mult: input A = 11000110001001000101110010010010, input B = 01011101110011011101110010100000, output OUT = 11100100100001000010101111000111
# refmod: input A = -10519.142578, input B = 1854238399314001920.000000, output OUT = -19504998096218263388160.000000
# refmod: input A = 11000110001001000101110010010010, input B = 01011101110011011101110010100000, output OUT = 11100100100001000010101111000111
# UVM_INFO @ 1365: uvm_test_top.env_h.comp [Comparator Match] 
# FP Mult: input A = 53235159138304.000000, input B = -2351704779522048.000000, output OUT = -125193382788406789456086958080.000000
# FP Mult: input A = 01010110010000011010101100011011, input B = 11011001000001011010110111001111, output OUT = 11101111110010100100001011000101
# refmod: input A = 53235159138304.000000, input B = -2351704779522048.000000, output OUT = -125193378184166347112649326592.000000
# refmod: input A = 01010110010000011010101100011011, input B = 11011001000001011010110111001111, output OUT = 11101111110010100100001011000101
# UVM_INFO @ 1395: uvm_test_top.env_h.comp [Comparator Match] 
# FP Mult: input A = 0.000000, input B = 463068768.000000, output OUT = 0.002663
# FP Mult: input A = 00101100110010100100111110001101, input B = 01001101110111001100111011110011, output OUT = 00111011001011100111111111101001
# refmod: input A = 0.000000, input B = 463068768.000000, output OUT = 0.002663
# refmod: input A = 00101100110010100100111110001101, input B = 01001101110111001100111011110011, output OUT = 00111011001011100111111111101001
# UVM_INFO @ 1425: uvm_test_top.env_h.comp [Comparator Match] 
# FP Mult: input A = 1099820934140788736.000000, input B = 0.000000, output OUT = 9188.508789
# FP Mult: input A = 01011101011101000011010110010101, input B = 00101000000101101000000010001111, output OUT = 01000110000011111001001000001001
# refmod: input A = 1099820934140788736.000000, input B = 0.000000, output OUT = 9188.508310
# refmod: input A = 01011101011101000011010110010101, input B = 00101000000101101000000010001111, output OUT = 01000110000011111001001000001001
# UVM_INFO @ 1455: uvm_test_top.env_h.comp [Comparator Match] 
# FP Mult: input A = 99248.078125, input B = 0.000000, output OUT = 0.000001
# FP Mult: input A = 01000111110000011101100000001010, input B = 00101100101101011110010101000001, output OUT = 00110101000010011011101101010111
# refmod: input A = 99248.078125, input B = 0.000000, output OUT = 0.000001
# refmod: input A = 01000111110000011101100000001010, input B = 00101100101101011110010101000001, output OUT = 00110101000010011011101101010111
# UVM_INFO @ 1485: uvm_test_top.env_h.comp [Comparator Match] 
# FP Mult: input A = -4122636990287970304.000000, input B = 0.138609, output OUT = -571432651269865472.000000
# FP Mult: input A = 11011110011001001101101000110010, input B = 00111110000011011110111101100101, output OUT = 11011100111111011100010001011111
# refmod: input A = -4122636990287970304.000000, input B = 0.138609, output OUT = -571432653622583296.000000
# refmod: input A = 11011110011001001101101000110010, input B = 00111110000011011110111101100101, output OUT = 11011100111111011100010001011111
# UVM_INFO @ 1515: uvm_test_top.env_h.comp [Comparator Match] 
# FP Mult: input A = -141714022989824.000000, input B = -0.000000, output OUT = 182732.984375
